test2/simulation/qsim/test2.msim.vcd
$comment
	File created using the following command:
		vcd file test2.msim.vcd -direction
$end
$date
	Thu Aug 03 11:54:27 2023
$end
$version
	ModelSim Version 10.5b
$end
$timescale
	1ps
$end

$scope module contador_vhd_vec_tst $end
$var wire 1 ! clock $end
$var wire 1 " En $end
$var wire 1 # Ent [3] $end
$var wire 1 $ Ent [2] $end
$var wire 1 % Ent [1] $end
$var wire 1 & Ent [0] $end
$var wire 1 ' Ld $end
$var wire 1 ( Q [3] $end
$var wire 1 ) Q [2] $end
$var wire 1 * Q [1] $end
$var wire 1 + Q [0] $end
$var wire 1 , resetn $end

$scope module i1 $end
$var wire 1 - gnd $end
$var wire 1 . vcc $end
$var wire 1 / unknown $end
$var wire 1 0 devoe $end
$var wire 1 1 devclrn $end
$var wire 1 2 devpor $end
$var wire 1 3 ww_devoe $end
$var wire 1 4 ww_devclrn $end
$var wire 1 5 ww_devpor $end
$var wire 1 6 ww_clock $end
$var wire 1 7 ww_resetn $end
$var wire 1 8 ww_Ld $end
$var wire 1 9 ww_En $end
$var wire 1 : ww_Ent [3] $end
$var wire 1 ; ww_Ent [2] $end
$var wire 1 < ww_Ent [1] $end
$var wire 1 = ww_Ent [0] $end
$var wire 1 > ww_Q [3] $end
$var wire 1 ? ww_Q [2] $end
$var wire 1 @ ww_Q [1] $end
$var wire 1 A ww_Q [0] $end
$var wire 1 B \Q[0]~output_o\ $end
$var wire 1 C \Q[1]~output_o\ $end
$var wire 1 D \Q[2]~output_o\ $end
$var wire 1 E \Q[3]~output_o\ $end
$var wire 1 F \clock~input_o\ $end
$var wire 1 G \Ld~input_o\ $end
$var wire 1 H \En~input_o\ $end
$var wire 1 I \Ent[0]~input_o\ $end
$var wire 1 J \temp~0_combout\ $end
$var wire 1 K \resetn~input_o\ $end
$var wire 1 L \band~0_combout\ $end
$var wire 1 M \band~q\ $end
$var wire 1 N \temp[0]~1_combout\ $end
$var wire 1 O \Ent[1]~input_o\ $end
$var wire 1 P \temp~2_combout\ $end
$var wire 1 Q \Ent[2]~input_o\ $end
$var wire 1 R \temp~3_combout\ $end
$var wire 1 S \Ent[3]~input_o\ $end
$var wire 1 T \Add0~0_combout\ $end
$var wire 1 U \temp~4_combout\ $end
$var wire 1 V temp [3] $end
$var wire 1 W temp [2] $end
$var wire 1 X temp [1] $end
$var wire 1 Y temp [0] $end
$var wire 1 Z ALT_INV_temp [3] $end
$var wire 1 [ ALT_INV_temp [2] $end
$var wire 1 \ ALT_INV_temp [1] $end
$var wire 1 ] ALT_INV_temp [0] $end
$var wire 1 ^ \ALT_INV_band~q\ $end
$var wire 1 _ \ALT_INV_Add0~0_combout\ $end
$var wire 1 ` \ALT_INV_Ld~input_o\ $end
$var wire 1 a \ALT_INV_En~input_o\ $end
$var wire 1 b \ALT_INV_Ent[0]~input_o\ $end
$var wire 1 c \ALT_INV_resetn~input_o\ $end
$var wire 1 d \ALT_INV_Ent[1]~input_o\ $end
$var wire 1 e \ALT_INV_Ent[2]~input_o\ $end
$var wire 1 f \ALT_INV_Ent[3]~input_o\ $end
$upscope $end
$upscope $end
$enddefinitions $end
#0
$dumpvars
0!
0"
0'
1,
0-
1.
x/
10
11
12
13
14
15
06
17
08
09
0B
0C
0D
0E
0F
0G
0H
0I
1J
1K
0L
0M
0N
0O
0P
0Q
0R
0S
0T
0U
1^
1_
1`
1a
1b
0c
1d
1e
1f
0#
0$
0%
0&
0:
0;
0<
0=
0>
0?
0@
0A
0V
0W
0X
0Y
1Z
1[
1\
1]
0(
0)
0*
0+
$end
#10000
1!
16
1F
#20000
0!
06
0F
#30000
1!
16
1F
#40000
0!
06
0F
#50000
1!
16
1F
#60000
0!
06
0F
#70000
1!
16
1F
#80000
0!
06
0F
#90000
1!
16
1F
#100000
0!
1"
06
19
1H
0F
0a
1L
1N
#110000
1!
16
1F
1M
1Y
0]
0^
0N
0J
1P
1B
1A
1+
#120000
0!
06
0F
#130000
1!
16
1F
#140000
0!
06
0F
#150000
1!
16
1F
#160000
0!
06
0F
#170000
1!
16
1F
#180000
0!
06
0F
#190000
1!
16
1F
#200000
0!
0"
06
09
0H
0F
1a
0L
#210000
1!
16
1F
0M
1^
#220000
0!
06
0F
#230000
1!
16
1F
#240000
0!
06
0F
#250000
1!
16
1F
#260000
0!
06
0F
#270000
1!
16
1F
#280000
0!
06
0F
#290000
1!
16
1F
#300000
0!
1"
06
19
1H
0F
0a
1L
1N
#310000
1!
16
1F
1M
0Y
1X
0\
1]
0^
0N
1J
1C
0B
1@
0A
0+
1*
#320000
0!
06
0F
#330000
1!
16
1F
#340000
0!
06
0F
#350000
1!
16
1F
#360000
0!
06
0F
#370000
1!
16
1F
#380000
0!
06
0F
#390000
1!
16
1F
#400000
0!
0"
06
09
0H
0F
1a
0L
#410000
1!
16
1F
0M
1^
#420000
0!
06
0F
#430000
1!
16
1F
#440000
0!
06
0F
#450000
1!
16
1F
#460000
0!
06
0F
#470000
1!
16
1F
#480000
0!
06
0F
#490000
1!
16
1F
#500000
0!
1"
06
19
1H
0F
0a
1L
1N
#510000
1!
16
1F
1M
1Y
0]
0^
0N
0J
0P
1R
1B
1A
1+
#520000
0!
06
0F
#530000
1!
16
1F
#540000
0!
06
0F
#550000
1!
16
1F
#560000
0!
06
0F
#570000
1!
16
1F
#580000
0!
06
0F
#590000
1!
16
1F
#600000
0!
0"
06
09
0H
0F
1a
0L
#610000
1!
16
1F
0M
1^
#620000
0!
06
0F
#630000
1!
16
1F
#640000
0!
06
0F
#650000
1!
16
1F
#660000
0!
06
0F
#670000
1!
16
1F
#680000
0!
06
0F
#690000
1!
16
1F
#700000
0!
1"
06
19
1H
0F
0a
1L
1N
#710000
1!
16
1F
1M
0Y
0X
1W
0[
1\
1]
0^
0N
1J
1D
0C
0B
1?
0@
0A
0+
0*
1)
#720000
0!
06
0F
#730000
1!
16
1F
#740000
0!
06
0F
#750000
1!
16
1F
#760000
0!
06
0F
#770000
1!
16
1F
#780000
0!
06
0F
#790000
1!
16
1F
#800000
0!
0"
06
09
0H
0F
1a
0L
#810000
1!
16
1F
0M
1^
#820000
0!
06
0F
#830000
1!
16
1F
#840000
0!
06
0F
#850000
1!
16
1F
#860000
0!
06
0F
#870000
1!
16
1F
#880000
0!
06
0F
#890000
1!
16
1F
#900000
0!
1"
06
19
1H
0F
0a
1L
1N
#910000
1!
16
1F
1M
1Y
0]
0^
0N
0J
1P
1B
1A
1+
#920000
0!
06
0F
#930000
1!
16
1F
#940000
0!
06
0F
#950000
1!
16
1F
#960000
0!
06
0F
#970000
1!
16
1F
#980000
0!
06
0F
#990000
1!
16
1F
